1430187510956,Europe/London,28/04/2015 03:18:00,28/04/2015 10:27:00,28/04/2015 11:00:00,7.15,4.5,  #home,10000,-1,-1,6,0.6627907,0,b5d7835,3.283335,0.10293161,0.10150495,0.08556819,0.08378062,0.07635202,0.07058394,0.74349725,2.0619025,2.029299,0.7331247,0.19847982,0.13837275,0.67310447,0.28769147,0.14492351,0.17985271,0.16362417,0.17206572,0.17474177,0.14152333,0.13136859,0.18595853,0.16100216,0.58467263,1.0724494,0.33623016,0.33879644,0.95560277,0.95575434,0.13642713,0.15182203,0.40831783,0.40810823,0.17060491,0.18332446,0.14425676,0.13839324,0.14579855,0.13521789,0.14814284,0.14859548,0.13205807,0.16782641,0.37314764,0.37255916,1.0534233,1.0552063,0.43137985,0.4288339,0.13551515,0.14650169,0.13277633,0.11612524,0.12272535,0.13235115,0.87010485,0.25669634,0.13955139,0.23296846,0.19011125,0.28231627,0.28464895,0.17892705,0.17449306,0.14605443,0.13974376,0.7901069,0.78988504,1.0024728,0.69619864,0.6973568,0.66775495,0.98043084,0.31654194,0.24988987,0.70575917,0.12239683,0.07579228,0.08888976,0.09511564,0.08799921,0.08000001,0.07796451,0.081362195,3.081377,LIGHT_START-1430187510956,LIGHT_END-1430187810388,DEEP_START-1430187810388,LIGHT_START-1430189606980,DEEP_END-1430189606980,LIGHT_END-1430191703004,DEEP_START-1430191703004,REM_START-1430193497324,REM_END-1430194697324,LIGHT_START-1430194697324,DEEP_END-1430194697324,LIGHT_END-1430196493916,DEEP_START-1430196493916,REM_START-1430200084828,REM_END-1430201284828,LIGHT_START-1430201284828,DEEP_END-1430201284828,LIGHT_END-1430202183124,DEEP_START-1430202183124,LIGHT_START-1430204279148,DEEP_END-1430204279148,LIGHT_END-1430204578580,DEEP_START-1430204578580,REM_START-1430206372900,REM_END-1430207572900,LIGHT_START-1430207572900,DEEP_END-1430207572900,LIGHT_END-1430210567220,DEEP_START-1430210567220,DEEP_END-1430213262168,TRACKING_STOPPED_BY_USER-1430213262169,ALARM_EARLIEST-1430213400000,ALARM_LATEST-1430215200000,,,,,,,,,,,,,,,,,,,,,,,,,
1430091456272,Europe/London,27/04/2015 00:37:00,27/04/2015 09:30:00,27/04/2015 09:30:00,8.88,4.5,uni  #home,10000,-1,-1,9,0.53,0,b5d7835,1.5459292,0.23054005,0.14077884,0.14139986,0.4929782,0.8279312,0.32068816,0.3227076,0.14485556,0.123236015,0.123236015,0.12028684,0.80460316,0.09511564,0.08459558,1.3410243,1.3412306,0.15349346,0.15528566,0.10814512,0.12794885,0.14792213,0.6739346,0.6722724,0.16993695,0.3101949,0.3767353,0.18013191,0.16624945,0.28073815,0.90158683,2.2648423,2.26565,2.1574454,2.1574848,0.40150216,0.8572846,0.8567721,0.16906548,0.70079815,0.70120573,0.11423363,0.13551815,0.13206527,0.588972,0.63064784,0.6870714,1.9799219,0.17060344,0.14650354,0.14292485,0.15526661,2.4230366,2.423086,0.14718871,0.12559317,0.2643592,0.145923,0.10100144,0.5372146,0.5362403,0.6064715,0.6061298,0.074810795,0.80394775,0.10363385,0.105604075,0.07408384,0.075399406,0.11347194,0.10273434,0.088002205,0.07849677,0.76460195,0.76475865,0.7306516,0.794167,0.7946631,0.17300221,0.093672656,0.09842832,0.06596745,0.10928045,0.10431178,0.089981735,0.18841189,2.5174456,0.09972678,0.10952705,0.85169786,0.851733,0.097053826,0.8426582,0.8421666,0.16500187,0.16723819,0.21472365,0.15781166,0.15319264,2.5631578,LIGHT_START-1430091456272,LIGHT_END-1430091775936,DEEP_START-1430091775936,LIGHT_START-1430093054592,DEEP_END-1430093054592,LIGHT_END-1430093374256,DEEP_START-1430093374256,LIGHT_START-1430095292240,DEEP_END-1430095292240,LIGHT_END-1430096890560,DEEP_START-1430096890560,LIGHT_START-1430098488880,DEEP_END-1430098488880,LIGHT_END-1430099128208,DEEP_START-1430099128208,LIGHT_START-1430101046192,DEEP_END-1430101046192,LIGHT_END-1430106800144,DEEP_START-1430106800144,LIGHT_START-1430108078800,DEEP_END-1430108078800,LIGHT_END-1430108718128,DEEP_START-1430108718128,LIGHT_START-1430110955776,DEEP_END-1430110955776,LIGHT_END-1430112234432,DEEP_START-1430112234432,REM_START-1430113591744,REM_END-1430114791744,LIGHT_START-1430114791744,DEEP_END-1430114791744,LIGHT_END-1430116390064,DEEP_START-1430116390064,REM_START-1430117747376,REM_END-1430118947376,LIGHT_START-1430118947376,DEEP_END-1430118947376,LIGHT_END-1430121504688,DEEP_START-1430121504688,ALARM_EARLIEST-1430121600000,ALARM_LATEST-1430123400000,ALARM_STARTED-1430123400150,ALARM_DISMISS-1430123422652,DEEP_END-1430123422755
1430003754647,Europe/London,26/04/2015 00:15:00,26/04/2015 09:25:00,26/04/2015 09:30:00,9.17,4.5,  #home,10000,-1,-1,5,0.74390244,0,b5d7835,2.5358057,0.09977796,0.29768014,0.07075266,0.07848053,0.07847593,0.20938563,0.2138281,0.074087575,0.14809576,0.14625616,0.14218545,0.15172538,0.15140128,0.17070363,0.15140693,0.5383848,0.27892032,0.5150345,0.5146294,0.58708817,0.088518485,0.1688162,0.17431644,0.14488636,0.24933578,0.1569136,0.15140606,0.15692027,0.16573259,0.14864916,0.13754667,0.4401677,0.431777,0.15960245,0.14301506,0.14382301,0.14831181,0.322876,1.3096821,0.8901674,1.9842786,0.9131978,0.91312534,0.31835672,0.31835714,0.13955604,0.3159157,0.2543338,0.11685038,0.25451696,0.2579307,0.17339572,0.13707116,0.25352898,0.2550767,0.115838565,0.25978622,0.8253211,0.82442796,0.81428593,0.6875192,0.6860951,0.13340615,0.395866,0.15318549,0.2178986,0.16858132,0.29262742,0.1677118,0.2943066,0.14265843,0.15116963,0.32425055,0.21398541,0.2022587,0.14882791,0.11145179,0.14068444,0.13542147,0.12255167,1.6857724,LIGHT_START-1430003754647,LIGHT_END-1430004157126,DEEP_START-1430004157126,REM_START-1430008994311,REM_END-1430010194311,LIGHT_START-1430010194311,DEEP_END-1430010194311,LIGHT_END-1430012206706,DEEP_START-1430012206706,REM_START-1430015433975,REM_END-1430016633975,LIGHT_START-1430016633975,DEEP_END-1430016633975,LIGHT_END-1430017438933,DEEP_START-1430017438933,LIGHT_START-1430019451328,DEEP_END-1430019451328,LIGHT_END-1430021463723,DEEP_START-1430021463723,REM_START-1430025898429,REM_END-1430027098429,LIGHT_START-1430027098429,DEEP_END-1430027098429,LIGHT_END-1430029915782,DEEP_START-1430029915782,ALARM_EARLIEST-1430035200000,REM_START-1430035557976,ALARM_STARTED-1430036726680,ALARM_DISMISS-1430036757893,REM_END-1430036757976,DEEP_END-1430036757976,ALARM_LATEST-1430037000000,,,,,,,,,,,,,,,,,,,,,,,,,,,,,,
1429921094374,Europe/London,25/04/2015 01:18:00,25/04/2015 09:17:00,25/04/2015 09:30:00,7.98,4.25,  #home,10000,-1,-1,5,0.5609756,0,b5d7835,2.9106658,0.97679776,0.7388418,0.15653628,0.12941952,0.12594245,0.14382187,0.15017468,0.70267093,0.15436335,0.15090795,0.35331455,0.3573908,0.13403384,0.32010165,0.32470962,0.14598183,0.15091297,0.26246905,0.9388295,0.9383023,0.43018603,0.2545176,0.12333814,0.25641266,0.2740647,0.25544864,0.31874156,0.12560005,0.25807524,0.25383872,0.13984098,0.26979825,0.2603875,0.67262,0.39309728,0.8383272,0.13976239,0.87401617,0.21270816,0.20551719,0.7664344,0.95117456,0.784967,0.7847907,0.09618533,0.09117964,0.6956179,0.69593924,0.26320085,0.28560516,0.28660408,0.15016457,0.30448008,0.40015006,0.08557411,0.085806094,0.10191131,0.12367669,0.11808163,0.7396994,0.7390544,0.09118349,0.10559809,0.47168347,0.1486552,0.12247183,0.14723368,0.121417426,0.09624964,0.12073741,0.12141982,0.11696446,0.73309064,0.7330668,0.10224031,0.8824479,0.9437609,0.7435403,0.10137627,0.079377465,1.9004403,LIGHT_START-1429921094374,LIGHT_END-1429922145778,DEEP_START-1429922145778,LIGHT_START-1429923898118,DEEP_END-1429923898118,LIGHT_END-1429924248586,DEEP_START-1429924248586,REM_START-1429926553266,REM_END-1429927753266,LIGHT_START-1429927753266,DEEP_END-1429927753266,LIGHT_END-1429928804670,DEEP_START-1429928804670,REM_START-1429931810286,REM_END-1429933010286,LIGHT_START-1429933010286,DEEP_END-1429933010286,LIGHT_END-1429938267306,DEEP_START-1429938267306,REM_START-1429940922454,REM_END-1429942122454,LIGHT_START-1429942122454,DEEP_END-1429942122454,LIGHT_END-1429943874794,DEEP_START-1429943874794,REM_START-1429945478538,REM_END-1429946678538,LIGHT_START-1429946678538,DEEP_END-1429946678538,ALARM_EARLIEST-1429948800000,ALARM_STARTED-1429949822012,ALARM_DISMISS-1429949832718,LIGHT_END-1429949832821,ALARM_LATEST-1429950600000,,,,,,,,,,,,,,,,,,,,,,,,,,,,
1429836998875,Europe/London,24/04/2015 01:56:00,24/04/2015 09:03:00,24/04/2015 10:30:00,7.12,4.5,uni ,10000,-1,-1,7,0.8,0,,1.5708928,0.12512116,0.12784623,0.10014011,0.25037375,0.25407144,0.12009586,0.11149304,0.1224671,0.12009367,0.10431102,0.11596224,0.1207331,0.11879094,0.25284547,0.25264463,0.18922059,0.14905928,0.13205507,0.13633236,0.15811603,0.14806826,0.14791942,0.14486155,0.13948296,0.1833236,0.1677927,0.1513982,0.30408737,0.30408737,0.16698036,0.16319282,0.15587112,0.15622908,0.13897403,0.17061113,0.15067971,0.1253896,0.108032614,0.14605589,0.1282006,0.75583774,0.7494712,0.13471588,0.12658596,0.16556877,0.12917471,0.63045067,0.7070788,0.47097018,0.10011228,0.105476975,0.09791446,0.11624856,0.11529166,0.09376694,0.101953134,0.09522529,0.9947977,0.38980967,0.975054,0.72448343,0.109523565,0.13138317,0.15585035,0.20012344,0.17409839,0.17880599,0.17782372,0.8197818,0.17061046,0.15750822,0.13637395,0.1911035,0.14154845,0.3000212,0.31126624,0.1856665,0.14292137,0.15546328,0.17633541,0.17971279,0.19474296,0.9396793,2.5203176,LIGHT_START-1429836998875,LIGHT_END-1429837300277,DEEP_START-1429837300277,REM_START-1429844238131,REM_END-1429845438131,LIGHT_START-1429845438131,DEEP_END-1429845438131,LIGHT_END-1429846040935,DEEP_START-1429846040935,REM_START-1429848156357,REM_END-1429849356357,LIGHT_START-1429849356357,DEEP_END-1429849356357,LIGHT_END-1429849959161,DEEP_START-1429849959161,LIGHT_START-1429851164769,DEEP_END-1429851164769,LIGHT_END-1429852068975,DEEP_START-1429852068975,REM_START-1429853280191,REM_END-1429854480191,LIGHT_START-1429854480191,DEEP_END-1429854480191,LIGHT_END-1429855685799,DEEP_START-1429855685799,LIGHT_START-1429857795613,DEEP_END-1429857795613,LIGHT_END-1429858097015,DEEP_START-1429858097015,LIGHT_START-1429859604025,DEEP_END-1429859604025,LIGHT_END-1429860206829,DEEP_START-1429860206829,LIGHT_START-1429862015241,DEEP_END-1429862015241,LIGHT_END-1429862618102,TRACKING_STOPPED_BY_USER-1429862618103,ALARM_EARLIEST-1429866000000,ALARM_LATEST-1429867800000,,,,,,,,,,,,,,,,,,,,
1429746034192,Europe/London,23/04/2015 00:40:00,23/04/2015 08:50:00,23/04/2015 09:30:00,8.16,3.75,uni,10000,-1,-1,6,0.48809522,0,,1.699908,0.161845,0.14203799,0.14865015,0.15318906,0.14881887,1.3088706,1.3158438,1.7097709,1.6666194,0.17892244,1.7762015,1.7763647,0.10608079,0.7383506,0.7383666,0.06689464,0.91697437,0.91724294,0.7005206,0.7004505,0.124419704,0.15659142,0.14755693,0.08244036,0.85112995,0.11236589,0.13569067,0.10272914,0.09748178,0.067919165,0.20930602,0.2900735,0.13497828,0.12932354,0.13319834,0.12570363,0.2512201,0.38882375,0.40770254,0.2278966,0.13859293,0.82887554,0.845998,0.06597208,0.06993256,0.074089006,0.10996039,0.69509315,0.068790786,0.077031545,0.14102714,0.16427416,0.16427416,0.12367669,0.1832588,0.16270562,1.7612793,1.759218,0.29829887,0.39349768,0.7133227,0.790599,0.79032826,0.5626312,0.70892185,0.69030815,0.08136293,0.07246314,0.07635344,0.45024619,0.6702254,0.67026603,0.4916558,0.15674844,0.3894118,0.1526703,0.54474056,0.27192473,0.7290871,0.12932026,0.22278158,0.31571287,2.0905704,LIGHT_START-1429746034192,LIGHT_END-1429746383891,DEEP_START-1429746383891,LIGHT_START-1429748132386,DEEP_END-1429748132386,LIGHT_END-1429753377871,DEEP_START-1429753377871,LIGHT_START-1429754776667,DEEP_END-1429754776667,LIGHT_END-1429755126366,DEEP_START-1429755126366,REM_START-1429759521550,REM_END-1429760721550,LIGHT_START-1429760721550,DEEP_END-1429760721550,LIGHT_END-1429761420948,DEEP_START-1429761420948,LIGHT_START-1429762819744,DEEP_END-1429762819744,LIGHT_END-1429763169443,DEEP_START-1429763169443,REM_START-1429764767035,REM_END-1429765967035,LIGHT_START-1429765967035,DEEP_END-1429765967035,LIGHT_END-1429769464025,DEEP_START-1429769464025,LIGHT_START-1429770862821,DEEP_END-1429770862821,LIGHT_END-1429775408932,TRACKING_STOPPED_BY_USER-1429775408933,ALARM_EARLIEST-1429776000000,ALARM_LATEST-1429777800000,,,,,,,,,,,,,,,,,,,,,,,,,,,
1429659500569,Europe/London,22/04/2015 00:38:00,22/04/2015 09:12:00,22/04/2015 10:00:00,8.56,4.5,uni,10000,-1,-1,5,0.64772725,0,,3.4328773,0.93042237,0.9303907,0.20116545,0.1287245,0.111648224,0.10922987,0.10995586,0.10863996,0.116880976,0.78024447,0.1467536,0.5152611,0.51547474,0.41018015,0.41100162,0.11888863,0.11145756,0.16332504,0.12179958,0.13299206,0.21653342,0.973808,0.09072311,1.0626338,1.0626336,0.123424806,1.9964976,0.14557257,0.13235067,0.4483871,0.44888568,0.1255133,0.8423514,0.84218425,0.10350531,0.12176602,0.12266909,0.11830007,0.2668498,0.2836861,0.28303838,0.11696358,0.25256312,0.47357112,0.45248947,0.2557743,0.25671646,0.17546795,0.21246454,0.14807841,0.1314964,0.15091056,0.16584298,0.21994951,0.138002,0.16214243,0.10803332,0.07246081,1.0065812,0.998321,0.6438621,2.6042817,2.647299,0.89571816,0.15016109,0.15016371,0.17338958,0.9271302,0.92713016,0.122578196,0.2509294,0.2503738,0.6643678,0.116248235,0.14761809,0.1425193,0.114324234,0.3898469,0.11076854,0.122553766,0.09118584,0.112671174,0.14726304,1.3965663,1.9313406,2.282006,3.5532634,LIGHT_START-1429659500569,LIGHT_END-1429660551688,DEEP_START-1429660551688,REM_START-1429661804299,REM_END-1429663004299,LIGHT_START-1429663004299,DEEP_END-1429663004299,LIGHT_END-1429663354672,DEEP_START-1429663354672,REM_START-1429666008775,REM_END-1429667208775,LIGHT_START-1429667208775,DEEP_END-1429667208775,LIGHT_END-1429669311013,DEEP_START-1429669311013,LIGHT_START-1429671062878,DEEP_END-1429671062878,LIGHT_END-1429671763624,DEEP_START-1429671763624,REM_START-1429678972576,REM_END-1429680172576,LIGHT_START-1429680172576,DEEP_END-1429680172576,LIGHT_END-1429685428171,DEEP_START-1429685428171,REM_START-1429687731901,REM_END-1429688931901,LIGHT_START-1429688931901,DEEP_END-1429688931901,LIGHT_END-1429690333409,TRACKING_STOPPED_BY_USER-1429690333410,ALARM_EARLIEST-1429691400000,ALARM_LATEST-1429693200000,,,,,,,,,,,,,,,,,,,,,,,
1429565984916,Europe/London,20/04/2015 22:39:00,21/04/2015 04:22:00,21/04/2015 04:50:00,5.72,4,uni    #home,10000,-1,-1,6,0.64634144,0,b5d7835,1.8202947,1.8202645,0.25918695,0.7419669,0.16694874,0.08844713,0.10137933,0.102578446,0.09246527,0.065009974,0.9338401,0.13403864,0.6905009,0.08631195,0.09030162,0.28416666,0.13658953,0.15507294,0.8592511,0.67207354,0.10203836,0.08196157,0.07633979,0.05811174,0.09153829,1.0213981,1.0216373,0.08252081,0.08800003,0.14273733,0.120046854,0.3196447,0.3418757,0.39464128,0.7547508,0.12475142,0.5363931,0.53574085,0.21298361,0.11872888,0.15338501,0.11134719,0.11236506,0.10770417,0.13296595,0.16255233,0.13521293,0.13558893,0.31718165,0.22053702,0.22106102,0.10011012,0.07408601,0.10340103,0.093132906,0.4325173,0.15903834,0.14807166,0.35470387,0.3518312,0.11602291,0.22402053,0.09510371,1.2924991,1.2306123,0.25535563,0.24953215,0.110635266,0.2547481,0.25148603,0.101911515,0.20452498,0.17145965,0.1633409,0.107841045,0.10898209,0.088030204,0.12840609,0.11547067,0.09118162,0.67813545,1.8452309,LIGHT_START-1429565984916,LIGHT_END-1429566988564,DEEP_START-1429566988564,LIGHT_START-1429568494036,DEEP_END-1429568494036,LIGHT_END-1429569246772,DEEP_START-1429569246772,LIGHT_START-1429570501332,DEEP_END-1429570501332,LIGHT_END-1429571003156,DEEP_START-1429571003156,LIGHT_START-1429572257716,DEEP_END-1429572257716,LIGHT_END-1429572759540,DEEP_START-1429572759540,LIGHT_START-1429574014100,DEEP_END-1429574014100,LIGHT_END-1429575519572,DEEP_START-1429575519572,REM_START-1429578585076,REM_END-1429579785076,LIGHT_START-1429579785076,DEEP_END-1429579785076,LIGHT_END-1429582294196,DEEP_START-1429582294196,REM_START-1429584857876,REM_END-1429586057876,LIGHT_START-1429586057876,DEEP_END-1429586057876,ALARM_EARLIEST-1429586400000,ALARM_STARTED-1429586537331,ALARM_DISMISS-1429586559685,LIGHT_END-1429586559753,ALARM_LATEST-1429588200000,,,,,,,,,,,,,,,,,,,,,,,,,,,,
1429494308487,Europe/London,20/04/2015 02:45:00,20/04/2015 10:09:00,20/04/2015 10:30:00,7.4,3.5,  #home,10000,-1,-1,7,0.6516854,0,b5d7835,1.8717394,0.7848179,0.6621827,0.13954924,0.15989484,0.25600302,0.26695973,0.30733165,0.302415,0.14191386,0.15765962,0.7601654,0.75913763,0.27229625,0.27288666,0.096182816,0.06993494,0.6893001,0.6893001,0.07848858,0.07307547,0.065968074,0.07408534,0.07139966,0.84700084,0.12537983,0.34038883,0.14680639,0.10108797,0.1293207,0.13098358,0.21745723,0.6725586,0.6723367,0.6899864,0.18070558,0.23826993,0.23704971,0.3154665,0.31801626,0.17835625,0.12368081,0.26685014,0.26764387,0.14274156,0.13558595,0.13868357,0.15766531,0.17435914,0.160975,0.12705384,0.16213898,0.9743416,0.8566564,0.07703093,1.0481799,1.0484948,0.19306944,1.1714977,0.11624088,0.11624088,0.08750666,2.1023924,1.9569421,0.112207,0.13389954,0.13403295,0.14152764,0.112136625,0.37096167,0.33490047,0.3351778,0.1522078,1.1083754,1.2201582,0.9492346,0.949626,0.307106,1.1822823,0.4961244,0.1287273,0.11423301,0.122666374,0.11267271,0.11601998,0.113074966,0.1194989,0.117716454,2.156789,LIGHT_START-1429494308487,LIGHT_END-1429495207044,DEEP_START-1429495207044,LIGHT_START-1429497603196,DEEP_END-1429497603196,LIGHT_END-1429498202234,DEEP_START-1429498202234,LIGHT_START-1429499400310,DEEP_END-1429499400310,LIGHT_END-1429499999348,DEEP_START-1429499999348,LIGHT_START-1429501496943,DEEP_END-1429501496943,LIGHT_END-1429501796462,DEEP_START-1429501796462,LIGHT_START-1429503893095,DEEP_END-1429503893095,LIGHT_END-1429504791652,DEEP_START-1429504791652,REM_START-1429508683475,REM_END-1429509883475,LIGHT_START-1429509883475,DEEP_END-1429509883475,LIGHT_END-1429513477703,DEEP_START-1429513477703,REM_START-1429514973374,REM_END-1429516173374,LIGHT_START-1429516173374,DEEP_END-1429516173374,LIGHT_END-1429518270007,DEEP_START-1429518270007,ALARM_EARLIEST-1429520400000,ALARM_STARTED-1429520951212,ALARM_DISMISS-1429520965699,DEEP_END-1429520965755,ALARM_LATEST-1429522200000,,,,,,,,,,,,,,,,,,,
1429408318093,Europe/London,19/04/2015 02:51:00,19/04/2015 10:05:00,19/04/2015 10:30:00,7.23,3.75, #newmoon    #home,10000,-1,-1,7,0.5632184,0,b5d7835,2.1341646,0.115737535,0.114235416,0.11696821,0.117724374,2.790475,2.9905722,0.12686805,0.10273356,0.1653452,0.13733844,0.15848897,0.1436576,0.15766817,3.081598,0.5367552,0.5357101,0.10397961,0.11624547,0.11624635,0.08607794,0.09881677,0.12740628,0.12740628,0.117805816,0.11593493,0.113419004,1.3753192,1.3753357,3.0177913,3.0177913,1.13396,0.5577555,1.1095195,1.1094083,0.8423643,0.12474687,1.3413106,0.107102215,0.117178395,0.12141901,0.18917404,0.15901843,0.14864796,0.2600499,0.7804021,0.7812963,0.15391096,0.14663458,0.17651822,0.18592516,0.8080381,1.6317261,1.6316853,0.7634572,0.4501992,0.20887963,0.6790465,0.8763168,0.11696216,0.8335374,0.8340714,0.7495005,0.25277284,0.25023475,0.12551132,0.105797864,0.11900237,0.18429148,0.18566023,0.11612723,0.12273201,0.23329788,0.23597139,0.7647625,0.7648251,0.14092372,0.1293193,0.12664087,0.13118835,1.1168245,1.1170496,0.15419005,0.77109295,0.1358805,0.25950757,1.6852269,LIGHT_START-1429408318093,LIGHT_END-1429408617277,DEEP_START-1429408617277,LIGHT_START-1429409814013,DEEP_END-1429409814013,LIGHT_END-1429410412381,DEEP_START-1429410412381,LIGHT_START-1429412506669,DEEP_END-1429412506669,LIGHT_END-1429412805853,DEEP_START-1429412805853,REM_START-1429415196061,REM_END-1429416396061,LIGHT_START-1429416396061,DEEP_END-1429416396061,LIGHT_END-1429419687085,DEEP_START-1429419687085,LIGHT_START-1429421781373,DEEP_END-1429421781373,LIGHT_END-1429422379741,DEEP_START-1429422379741,LIGHT_START-1429423576477,DEEP_END-1429423576477,LIGHT_END-1429427166685,DEEP_START-1429427166685,REM_START-1429429257709,REM_END-1429430457709,LIGHT_START-1429430457709,DEEP_END-1429430457709,LIGHT_END-1429431056077,DEEP_START-1429431056077,LIGHT_START-1429432252813,DEEP_END-1429432252813,ALARM_EARLIEST-1429434000000,ALARM_STARTED-1429434330038,ALARM_DISMISS-1429434347105,LIGHT_END-1429434347166,ALARM_LATEST-1429435800000,,,,,,,,,,,,,,,,,,,
1429315480171,Europe/London,18/04/2015 01:04:00,18/04/2015 09:41:00,20/04/2015 10:00:00,8.62,2.5,  #home,10000,-1,-1,6,0.49484536,0,b5d7835,2.5954473,2.595404,2.9284606,2.9274619,0.37357697,0.14152333,0.11913321,0.12255167,0.1254912,0.16697782,0.26279122,0.5308353,0.53194976,0.1591479,0.14383364,0.35511458,0.35511434,0.31794807,1.9262733,1.9250246,0.1541318,0.15807192,0.1561783,0.1353072,0.16099656,0.77045715,0.77028537,0.15901765,0.15576953,0.66620046,0.64979047,0.13637395,1.5027943,1.5027788,0.68468374,0.14814423,0.1636253,0.37120703,1.119199,0.25669464,0.13652132,0.11794004,0.25885683,0.6496441,0.7649218,0.1321374,0.17539111,0.1572551,0.12741101,0.14203255,0.1569083,0.7496391,0.7492402,0.9783717,0.86578673,2.6609998,2.6762898,0.761644,0.7661577,0.80144113,0.53769386,0.5372146,1.4473879,1.447388,0.16877568,0.2923755,1.8550236,0.1927632,0.13050218,1.2215459,1.1908604,0.14319935,0.14102654,0.13468876,0.2989088,0.29929894,0.13440278,0.12686661,0.117717065,0.27336958,0.14962009,0.33969495,0.15461089,0.49486545,0.9126597,0.9122667,0.6436131,0.64364415,0.6693424,0.67752427,0.31544575,0.31508744,0.17761989,0.17181306,0.3061522,0.44106847,2.4279835,LIGHT_START-1429315480171,LIGHT_END-1429316759391,DEEP_START-1429316759391,REM_START-1429320036661,REM_END-1429321236661,LIGHT_START-1429321236661,DEEP_END-1429321236661,LIGHT_END-1429321876271,DEEP_START-1429321876271,LIGHT_START-1429323475296,DEEP_END-1429323475296,LIGHT_END-1429327952566,DEEP_START-1429327952566,LIGHT_START-1429329231786,DEEP_END-1429329231786,LIGHT_END-1429329871396,DEEP_START-1429329871396,LIGHT_START-1429331790226,DEEP_END-1429331790226,LIGHT_END-1429338186326,DEEP_START-1429338186326,REM_START-1429341143791,REM_END-1429342343791,LIGHT_START-1429342343791,DEEP_END-1429342343791,LIGHT_END-1429344262621,DEEP_START-1429344262621,DEEP_END-1429346501260,TRACKING_STOPPED_BY_USER-1429346501261,,,,,,,,,,,,,,,,,,
1429227796509,Europe/London,17/04/2015 00:43:00,17/04/2015 09:31:00,17/04/2015 10:00:00,8.81,3,uni   #home,10000,-1,-1,8,0.6969697,-1,b5d7835,1.7256196,2.512852,2.5279467,0.2014075,0.12155085,0.123255335,0.12325068,0.15754667,0.16077434,0.78519785,0.7885298,0.12265539,0.2587934,0.3160654,0.14292485,0.2609601,0.20727694,0.20646134,0.1084516,0.115958236,0.120177105,0.12577304,0.1459106,0.12246028,0.28491727,0.28489676,0.1321446,0.7240858,0.20516212,0.92610514,0.9264865,0.14530814,0.4527213,0.16777791,0.2818006,0.26778093,0.13205881,0.12334365,0.1320453,0.1476742,0.4224641,0.4217865,0.27048102,0.28434482,0.94294536,0.9430189,0.15590069,0.16828834,0.17766616,0.118086636,0.13453175,0.14203936,0.7450541,0.7442275,0.124509774,0.1459182,0.1648641,0.14590952,0.15855509,0.49279064,0.4924661,0.12949362,0.24483138,0.17221862,0.13976519,0.9149576,0.9150873,0.61416256,0.247782,1.8147033,1.9810122,1.2165775,0.15374973,1.104836,1.3280236,0.3039044,0.13924643,0.14147384,0.14470296,0.14470446,0.13077036,0.30463845,0.290345,0.29018223,0.21295388,0.090123504,0.096600875,0.17327783,0.17627613,1.1858971,1.1856261,0.1869705,0.18794946,0.09748303,0.12009528,0.43443114,0.16389202,0.1706511,1.4521372,LIGHT_START-1429227796509,TRACKING_PAUSED-1429228565510,TRACKING_RESUMED-1429228645103,LIGHT_END-1429228757433,DEEP_START-1429228757433,LIGHT_START-1429230679281,DEEP_END-1429230679281,LIGHT_END-1429231319897,DEEP_START-1429231319897,REM_START-1429235244825,REM_END-1429236444825,LIGHT_START-1429236444825,DEEP_END-1429236444825,LIGHT_END-1429238366673,DEEP_START-1429238366673,REM_START-1429240690061,REM_END-1429241890061,LIGHT_START-1429241890061,DEEP_END-1429241890061,LIGHT_END-1429242530677,DEEP_START-1429242530677,LIGHT_START-1429244452525,DEEP_END-1429244452525,LIGHT_END-1429245093141,DEEP_START-1429245093141,LIGHT_START-1429246694681,DEEP_END-1429246694681,LIGHT_END-1429247335297,DEEP_START-1429247335297,LIGHT_START-1429248616529,DEEP_END-1429248616529,LIGHT_END-1429251819609,DEEP_START-1429251819609,REM_START-1429255103921,REM_END-1429256303921,LIGHT_START-1429256303921,DEEP_END-1429256303921,LIGHT_END-1429256944537,DEEP_START-1429256944537,ALARM_EARLIEST-1429259400000,ALARM_STARTED-1429259454976,ALARM_DISMISS-1429259506941,DEEP_END-1429259507053,ALARM_LATEST-1429261200000,
1429140387222,Europe/London,16/04/2015 00:26:00,16/04/2015 08:22:00,16/04/2015 09:00:00,7.93,2.75,uni   #home,10000,-1,-1,4,0.45679012,0,b5d7835,1.767835,0.53805125,0.5362256,0.19228874,0.18151146,0.2669594,0.53479546,0.12310963,1.1305695,1.1301665,0.16258302,0.07306947,0.075399406,0.6544812,0.6546446,0.09611202,1.1128787,0.128997,0.13174565,0.12727697,0.13410956,0.12017928,0.10844804,0.19367117,0.4013375,0.18884425,0.26020345,1.0947067,1.0948116,0.49494413,0.6553779,0.7186925,0.2552871,0.109286584,0.14427622,0.14474812,0.17571796,0.31544584,0.35914892,0.14356314,0.26088217,0.25420913,0.25546885,0.8038993,0.8039388,0.14219023,0.13707463,1.0919778,0.15326804,0.23943278,0.6406297,0.26072842,0.2607289,0.58313525,0.8044062,1.1162962,1.0403928,0.1352196,0.8716102,0.4494617,0.36919266,1.7044986,0.8353854,1.8272074,1.8271644,0.5588497,0.93405306,1.3571314,1.3608398,0.16179545,0.16179892,0.1816519,0.27938747,0.15080193,0.38961473,0.11793308,0.21478057,0.19510792,0.84664154,0.84664154,3.0195124,LIGHT_START-1429140387222,LIGHT_END-1429140739582,DEEP_START-1429140739582,REM_START-1429142006102,REM_END-1429143206102,LIGHT_START-1429143206102,DEEP_END-1429143206102,LIGHT_END-1429146377342,DEEP_START-1429146377342,REM_START-1429148700942,REM_END-1429149900942,LIGHT_START-1429149900942,DEEP_END-1429149900942,LIGHT_END-1429151662742,DEEP_START-1429151662742,REM_START-1429154338702,REM_END-1429155538702,LIGHT_START-1429155538702,DEEP_END-1429155538702,LIGHT_END-1429164700062,DEEP_START-1429164700062,REM_START-1429166671302,REM_END-1429167871302,LIGHT_START-1429167871302,DEEP_END-1429167871302,LIGHT_END-1429168928412,TRACKING_STOPPED_BY_USER-1429168928413,ALARM_EARLIEST-1429169400000,ALARM_LATEST-1429171200000,,,,,,,,,,,,,,,,,,,,,,,,,,,,,,,,,,
1429054422739,Europe/London,15/04/2015 00:33:00,15/04/2015 08:31:00,15/04/2015 09:00:00,7.96,3.5,uni   #home,10000,-1,-1,2,0.5121951,0,b5d7835,3.5913346,0.10431585,0.10852978,0.6919759,1.7671602,0.120295025,0.10877657,0.11975864,1.998287,1.9983593,0.17892091,1.1444887,1.1442654,0.25765035,0.25977603,0.3189654,0.3150943,0.2567148,0.11913911,0.11771311,0.30659252,0.062453616,0.08000001,0.08851256,0.09224772,0.07321837,0.33723664,0.3368856,0.10678731,0.10927958,0.12550882,0.15415455,0.25451693,0.14908539,0.39304,0.25642395,0.25548044,0.32321414,0.3323947,0.1743647,1.178477,1.0845138,0.6737824,0.15437132,0.7195186,0.7592152,0.6390692,1.6387577,1.6391333,0.82117814,0.8203523,0.17998937,1.3479476,1.3474909,0.12239112,0.09650466,0.65125555,0.65112185,0.3055253,0.15480009,0.6627744,0.0872412,0.08134879,0.12602285,0.6949195,0.87535894,0.49097595,0.10784407,0.283006,0.2513425,0.08851186,0.106275894,0.09847573,0.08799897,0.12202004,0.10273321,0.07480933,0.09618192,0.12567358,0.12926544,0.08677426,2.1185052,LIGHT_START-1429054422739,LIGHT_END-1429058964185,DEEP_START-1429058964185,REM_START-1429067196419,REM_END-1429068396419,LIGHT_START-1429068396419,DEEP_END-1429068396419,LIGHT_END-1429077479311,DEEP_START-1429077479311,REM_START-1429081868839,ALARM_EARLIEST-1429083000000,ALARM_STARTED-1429083018497,ALARM_DISMISS-1429083068788,REM_END-1429083068839,DEEP_END-1429083068839,ALARM_LATEST-1429084800000,,,,,,,,,,,,,,,,,,,,,,,,,,,,,,,,,,,,,,,,,,,,,,
1428968239283,Europe/London,14/04/2015 00:37:00,14/04/2015 08:37:00,14/04/2015 09:00:00,8,0,uni  #home,10000,-1,-1,6,0.47560975,0,b5d7835,1.8437794,0.3548346,0.35283017,0.14078094,0.68626505,0.68620527,0.27669695,0.23849489,0.23826948,0.10927958,0.12551147,0.12719662,0.13349052,0.29069048,0.89640474,0.72649574,0.2037511,0.12201692,0.1276909,0.10137933,0.20996729,0.27338615,0.2768775,0.1452711,0.9087563,0.30470064,0.13773684,0.6910149,0.69050044,0.8130676,0.80575866,0.2575483,0.25379255,0.1980146,0.11772269,0.11446187,0.12202004,0.6492727,0.7643723,0.76497567,0.32038704,0.66776806,0.19490379,2.075763,0.11772008,0.12039062,0.12432473,0.108985186,0.6874197,0.6877126,0.31973687,0.66969806,0.7057106,0.995735,0.49594694,0.49594694,0.16300283,0.1398296,0.2565141,0.26306972,0.2561595,0.47377694,0.4695772,0.08677167,0.08134658,0.076356955,0.07058781,0.06389466,0.10608152,0.10607941,0.31793052,0.73275673,0.93876445,0.75162953,0.73412585,0.1674719,0.6785494,0.6789841,0.3707854,0.36802667,0.2766734,1.6117004,LIGHT_START-1428968239283,LIGHT_END-1428970345943,DEEP_START-1428970345943,REM_START-1428971954823,REM_END-1428973154823,LIGHT_START-1428973154823,DEEP_END-1428973154823,LIGHT_END-1428973857043,DEEP_START-1428973857043,REM_START-1428975465923,REM_END-1428976665923,LIGHT_START-1428976665923,DEEP_END-1428976665923,LIGHT_END-1428979123693,DEEP_START-1428979123693,LIGHT_START-1428981230353,DEEP_END-1428981230353,LIGHT_END-1428983688123,DEEP_START-1428983688123,LIGHT_START-1428985092563,DEEP_END-1428985092563,LIGHT_END-1428987901443,DEEP_START-1428987901443,LIGHT_START-1428989656993,DEEP_END-1428989656993,LIGHT_END-1428990359213,DEEP_START-1428990359213,REM_START-1428991968093,REM_END-1428993168093,LIGHT_START-1428993168093,DEEP_END-1428993168093,ALARM_EARLIEST-1428996600000,ALARM_STARTED-1428996980309,ALARM_DISMISS-1428997030286,LIGHT_END-1428997030350,ALARM_LATEST-1428998400000,,,,,,,,,,,,,,,,,,,,,,,,,,
1428885797964,Europe/London,13/04/2015 01:43:00,13/04/2015 09:30:00,13/04/2015 09:30:00,7.79,2.75,  #home,10000,-1,-1,5,0.65,0,b5d7835,1.6199275,0.15525115,0.15050635,0.16734384,0.17232141,0.11976358,0.14889987,0.1548289,0.164042,1.0077761,0.078203134,0.22096446,0.0850491,0.09412847,0.09413033,0.23599145,0.20869888,0.09704887,0.098391436,0.15089098,0.14835785,0.101376265,0.10607941,0.12811284,0.095716596,0.10595547,0.14191386,0.12199952,0.101953134,0.8560355,0.13468958,0.32652956,0.25765035,0.13890588,0.18145092,0.10547321,0.11706015,0.10970839,0.12931697,0.15691118,0.5166178,0.5148532,0.5649276,1.9590195,2.0001101,0.13109444,0.7490077,0.74838644,0.7359385,0.7339733,0.08913918,0.6665163,0.12018379,0.12018218,0.089141294,0.10520615,0.12550415,0.14184782,0.08378018,0.08685751,0.12301305,0.915564,0.9140422,0.33589458,0.96823114,0.79480594,0.7943614,0.124080114,0.637171,0.673315,0.67317843,0.51381135,0.7283042,0.11446692,0.12728035,0.117460474,0.09225221,0.1188814,0.11503674,1.5808555,LIGHT_START-1428885797964,LIGHT_END-1428886148499,DEEP_START-1428886148499,REM_START-1428887752779,REM_END-1428888952779,LIGHT_START-1428888952779,DEEP_END-1428888952779,LIGHT_END-1428889303314,DEEP_START-1428889303314,REM_START-1428894763479,REM_END-1428895963479,LIGHT_START-1428895963479,DEEP_END-1428895963479,LIGHT_END-1428896314014,DEEP_START-1428896314014,REM_START-1428898619364,REM_END-1428899819364,LIGHT_START-1428899819364,DEEP_END-1428899819364,LIGHT_END-1428904025784,DEEP_START-1428904025784,REM_START-1428905980599,REM_END-1428907180599,LIGHT_START-1428907180599,DEEP_END-1428907180599,LIGHT_END-1428911387019,DEEP_START-1428911387019,ALARM_EARLIEST-1428912000000,ALARM_LATEST-1428913800000,ALARM_STARTED-1428913800028,ALARM_DISMISS-1428913840770,DEEP_END-1428913840809,,,,,,,,,,,,,,,,,,,,,,,,,,,,,,,,
1427759866155,Europe/London,31/03/2015 00:57:00,31/03/2015 08:30:00,31/03/2015 09:00:00,7.55,2.75,uni     #home,10000,-1,-1,4,0.52577317,0,b5d7835,1.9509612,1.0003413,0.17114753,0.170521,0.10707293,0.35206732,0.86168087,1.2597421,1.0919894,0.23484829,0.23781571,0.08190986,0.06993263,1.560895,1.5609465,0.6965854,0.25641182,1.1650008,0.9711348,0.1409162,0.15139663,0.106723405,0.12551597,0.1281967,0.25602746,0.7994665,0.8006613,0.15321207,0.15525489,0.15855744,0.26279286,0.98850864,0.98295337,0.23431776,0.25885603,0.25762993,0.11946509,0.13395481,0.145911,0.14965527,0.6735593,0.66240084,0.1449189,0.7899528,0.14590952,0.14374208,0.14604999,0.15590431,0.15893644,0.15654944,0.13410774,0.19787495,0.3277148,0.27350366,0.26377952,0.4132969,0.41376784,0.16831084,0.51664203,0.15528566,0.26844457,0.15436247,0.6374275,0.6576888,0.27271503,0.35628718,3.255776,3.2544122,0.10195615,0.0975446,0.99429053,0.9995592,0.14474812,0.09893233,0.321299,0.14580385,0.16185266,0.16361949,0.12719662,0.14356172,0.2536072,0.31834897,0.1638446,0.15990378,0.14191386,0.13308969,0.13983454,0.35422274,0.35422218,0.1220148,0.101893954,0.11347258,0.109712265,0.28864837,0.14885966,0.1421399,2.6517603,LIGHT_START-1427759866155,LIGHT_END-1427765192463,DEEP_START-1427765192463,LIGHT_START-1427766874455,DEEP_END-1427766874455,LIGHT_END-1427769117111,DEEP_START-1427769117111,LIGHT_START-1427771079435,DEEP_END-1427771079435,LIGHT_END-1427772200763,DEEP_START-1427772200763,REM_START-1427774925411,REM_END-1427776125411,LIGHT_START-1427776125411,DEEP_END-1427776125411,LIGHT_END-1427780050059,DEEP_START-1427780050059,REM_START-1427785858380,ALARM_EARLIEST-1427787000000,ALARM_STARTED-1427787018515,ALARM_DISMISS-1427787058277,REM_END-1427787058380,DEEP_END-1427787058380,ALARM_LATEST-1427788800000,,,,,,,,,,,,,,,,,,,,,,,
1418958634382,Europe/London,19/12/2014 03:10:00,19/12/2014 10:14:00,19/12/2014 10:30:00,7.07,2.5,uni    #home,10000,-1,-1,5,0.45882353,0,b5d783d,2.507821,1.1963143,0.75927347,0.7591307,0.11718833,0.09786069,0.1481864,0.1481864,0.1536538,1.054566,1.0370116,0.12768462,0.91637397,0.9168222,0.14690737,0.14690737,0.37031496,0.36952978,0.18385553,0.17772909,0.49338254,0.49354604,0.15050235,0.07245924,0.07482102,0.07075742,0.07408391,0.07861324,0.10412925,0.10412925,0.065966606,0.07246244,0.08556665,0.08685824,0.6606787,0.6606493,0.100113474,0.10011228,0.6954242,0.71596193,0.0880048,0.1059382,0.5358318,0.53606987,0.71230984,0.7119754,0.08750969,0.51320106,0.5131679,0.08631391,0.7801475,0.4968026,0.11307497,0.9025036,0.6662366,0.102939844,0.12442151,0.7292351,0.14096217,0.7343131,0.73438555,0.11602697,0.14625518,0.13955516,0.1547423,0.15666105,0.15666105,0.14557283,0.16845389,0.1684514,0.28905097,0.12538023,0.8933273,0.6958045,0.17336297,0.1568801,0.14948304,0.58525836,0.5828727,0.30932015,0.3285305,0.207068,0.13630243,0.1471789,1.6733518,LIGHT_START-1418958634382,LIGHT_END-1418959832706,DEEP_START-1418959832706,LIGHT_START-1418961330611,DEEP_END-1418961330611,LIGHT_END-1418962828516,DEEP_START-1418962828516,LIGHT_START-1418964626002,DEEP_END-1418964626002,LIGHT_END-1418965225164,DEEP_START-1418965225164,REM_START-1418967620136,REM_END-1418968820136,LIGHT_START-1418968820136,DEEP_END-1418968820136,LIGHT_END-1418976908823,DEEP_START-1418976908823,REM_START-1418979004214,REM_END-1418980204214,LIGHT_START-1418980204214,DEEP_END-1418980204214,LIGHT_END-1418982301281,DEEP_START-1418982301281,ALARM_EARLIEST-1418983200000,ALARM_STARTED-1418984046599,ALARM_DISMISS-1418984098714,DEEP_END-1418984098798,ALARM_LATEST-1418985000000,,,,,,,,,,,,,,,,,,,,,,,,,,,,,,,
1418786736676,Europe/London,17/12/2014 03:25:00,17/12/2014 09:54:00,17/12/2014 10:00:00,6.49,2,uni    #home,10000,-1,-1,4,0.58762884,0,b5d783d,2.7011092,0.15857926,0.3591155,1.9328667,1.9330114,0.96334624,2.331203,2.3191514,0.10393464,0.92984337,0.093729004,0.1084509,0.10927958,0.08381303,0.10413001,0.1259385,0.089632414,0.08729237,0.07408997,0.113470934,0.10149964,0.7330842,0.07553264,0.12265635,0.103498474,0.0812117,0.09422942,0.14125536,0.13948396,0.117714785,0.11279016,0.11762597,0.11223842,0.10928045,0.10195615,0.7065116,0.7075934,0.53643703,0.13205567,0.15472908,0.15216044,0.17632629,0.16830763,0.1552329,0.15429221,0.15505224,0.18083753,0.16773772,0.12949267,0.18922278,0.9627887,0.9629287,0.8708862,0.15673818,0.15618055,0.68509924,0.13973086,0.9917692,0.75920683,0.0730717,0.07635611,0.078490175,0.07307547,0.08058945,0.09118063,0.086770765,0.08243528,0.13204126,0.1356916,0.13739263,0.143831,0.14382897,0.13975513,0.12728293,0.15326029,0.15914635,0.120384835,0.1255178,0.3915659,0.39074406,2.9005964,2.9005225,0.66159075,1.0822637,0.10912082,0.13149592,0.13497762,0.13679785,0.45047337,0.12624618,0.11497836,0.14488985,0.1469502,1.1608864,1.3105053,0.07409057,2.570661,LIGHT_START-1418786736676,LIGHT_END-1418789143976,DEEP_START-1418789143976,REM_START-1418790592006,REM_END-1418791792006,LIGHT_START-1418791792006,DEEP_END-1418791792006,LIGHT_END-1418792032736,DEEP_START-1418792032736,REM_START-1418793962226,REM_END-1418795162226,LIGHT_START-1418795162226,DEEP_END-1418795162226,LIGHT_END-1418795884416,DEEP_START-1418795884416,REM_START-1418797573176,REM_END-1418798773176,LIGHT_START-1418798773176,DEEP_END-1418798773176,LIGHT_END-1418800939746,DEEP_START-1418800939746,REM_START-1418804795076,REM_END-1418805995076,LIGHT_START-1418805995076,DEEP_END-1418805995076,ALARM_EARLIEST-1418808600000,ALARM_STARTED-1418809402039,ALARM_SNOOZE-1418809441389,ALARM_STARTED-1418810041415,ALARM_DISMISS-1418810087498,LIGHT_END-1418810087553,ALARM_LATEST-1418810400000,,,,,,,,,,,,,,,
1417661045989,Europe/London,04/12/2014 02:44:00,04/12/2014 07:21:00,04/12/2014 07:30:00,4.62,2,uni,10000,-1,-1,5,0.686747,0,,2.5955353,1.3388256,1.3386863,1.2954524,1.2978755,0.11900069,0.109719425,0.095158055,0.13185398,0.1388978,0.13706286,0.12528484,0.13235474,0.11094962,0.08739172,1.5233661,0.13538633,0.16628575,0.15544398,0.12584108,0.13403864,1.5056192,1.5051917,0.13206212,0.12342746,0.4921988,0.49264702,0.2895461,0.29201916,0.16171837,0.13349557,0.13404272,0.3090609,1.3371633,0.10431391,0.12018218,0.1121333,0.15181783,0.14719428,0.1467902,0.12141316,0.1505018,0.1684489,0.11138095,0.12081968,0.12949464,0.09748062,0.30041027,0.30222955,0.0974812,0.32024777,0.38535646,0.15981233,0.16003756,0.13688119,0.17473601,0.13651207,0.44156688,0.44208097,0.14089242,0.13797657,0.09376788,0.096497834,0.1191512,0.11976358,0.09376881,0.4288543,0.13426976,0.14203665,0.1255993,0.11547478,0.11456327,0.13287185,0.07246209,0.09618444,0.11484317,0.10928045,0.09612054,0.53586674,2.2505574,1.6994429,0.83799535,1.3669227,LIGHT_START-1417661045989,LIGHT_END-1417662047564,DEEP_START-1417662047564,LIGHT_START-1417664050714,DEEP_END-1417664050714,LIGHT_END-1417666454494,DEEP_START-1417666454494,LIGHT_START-1417667656384,DEEP_END-1417667656384,LIGHT_END-1417667856699,DEEP_START-1417667856699,REM_START-1417671263944,REM_END-1417672463944,LIGHT_START-1417672463944,DEEP_END-1417672463944,LIGHT_END-1417672864574,DEEP_START-1417672864574,LIGHT_START-1417674266779,DEEP_END-1417674266779,LIGHT_END-1417674467094,DEEP_START-1417674467094,ALARM_EARLIEST-1417676400000,LIGHT_START-1417676670559,DEEP_END-1417676670559,ALARM_STARTED-1417676977891,ALARM_SNOOZE-1417677020489,ALARM_STARTED-1417677620516,ALARM_DISMISS-1417677672072,LIGHT_END-1417677672151,ALARM_LATEST-1417678200000,,,,,,,,,,,,,,,,,,,,,,,,,,,,,,,