28/04/2015 03:18:00,DEEP_START-1430187810388
27/04/2015 00:37:00,DEEP_START-1430093374256
26/04/2015 00:15:00,DEEP_START-1430004157126
25/04/2015 01:18:00,DEEP_START-1429922145778
24/04/2015 01:56:00,DEEP_START-1429837300277
23/04/2015 00:40:00,DEEP_START-1429746383891
22/04/2015 00:38:00,DEEP_START-1429660551688
20/04/2015 22:39:00,DEEP_START-1429566988564
20/04/2015 02:45:00,DEEP_START-1429495207044
19/04/2015 02:51:00,DEEP_START-1429408617277
18/04/2015 01:04:00,DEEP_START-1429316759391
17/04/2015 00:43:00,DEEP_START-1429228757433
16/04/2015 00:26:00,DEEP_START-1429140739582
15/04/2015 00:33:00,DEEP_START-1429058964185
14/04/2015 00:37:00,DEEP_START-1428970345943
13/04/2015 01:43:00,DEEP_START-1428886148499
31/03/2015 00:57:00,DEEP_START-1427765192463
19/12/2014 03:10:00,DEEP_START-1418959832706
17/12/2014 03:25:00,DEEP_START-1418789143976
04/12/2014 02:44:00,DEEP_START-1417662047564